…
The function will return a two-column tibble with the lyrics and the
translated lyrics.

``` r
hoje
#> # A tibble: 24 x 2
#>    lyric                                translation                           
#>    <chr>                                <chr>                                 
#>  1 A minha alegria atravessou o mar     Mi alegría cruzó el mar               
#>  2 E ancorou na passarela               Y anclado en la pasarela              
#>  3 Fez um desembarque fascinante        Hizo un aterrizaje fascinante         
#>  4 No maior show da terra               En el espectáculo más grande del mundo
#>  5 Será que eu serei o dono dessa festa ¿Seré el dueño de esta fiesta?        
#>  6 Um rei                               Un rey                                
#>  7 No meio de uma gente tão modesta     En medio de gente tan modesta         
#>  8 Eu vim descendo a serra              Bajé de la montaña                    
#>  9 Cheio de euforia para desfilar       Lleno de euforia para desfilar        
#> 10 O mundo inteiro espera               El mundo entero espera                
#> # … with 14 more rows
```
…
